Workshop 1: Introduction to hypervolumes – BSC6926-B53B Spring 2025
…
# combine
df = left_join(ab, tr, by = 'species') |> 
  drop_na()

Now we can make the hypervolume by selecting the data to be included and z-scoring

df_before = df |> 
  filter(period == 'Before') |> 
  select(trophic_level, temp_preference, generation_time)|> 
  mutate(across(trophic_level:generation_time, scale))

df_before
## # A tibble: 23 × 3
##    trophic_level[,1] temp_preference[,1] generation_time[,1]
##                <dbl>               <dbl>               <dbl>
##  1            -0.712             -0.569               -1.05 
##  2            -1.00              -0.0696              -1.18 
##  3            -0.567             -0.969               -0.769
##  4             0.947              1.43                 1.32 
##  5            -0.207             -0.0696               1.32 
##  6            -0.640              2.23                -0.446
##  7            -0.640              0.530                0.920
##  8             0.298             -0.569                0.437
##  9            -0.712             -0.569               -1.05 
## 10            -1.00              -0.0696              -1.18 
## # ℹ 13 more rows
…
